Data wrangling
…
< and <= - Less than and Less than or equal to

%in% - Included in (followed by a vector)

is.na() - Is a missing value

& and | - And ; Or, for stringing multiple criteria

Selecting columns with select()

Sometimes with large datasets, or when manipulating columns you want to select only certain columns to keep. select() is a very useful way to do this.

select(penguins, species, year)

# A tibble: 344 × 2
   species  year
   <fct>   <int>
 1 Adelie   2007
 2 Adelie   2007
 3 Adelie   2007
 4 Adelie   2007
 5 Adelie   2007
 6 Adelie   2007
 7 Adelie   2007
 8 Adelie   2007
 9 Adelie   2007
10 Adelie   2007
# … with 334 more rows

Selecting columns with select()

We can select multiple consecutive columns with :, which will keep all columns starting with the first specified and ending with the second specified.

select(penguins, species:bill_length_mm, year)

# A tibble: 344 × 4
   species island    bill_length_mm  year
   <fct>   <fct>              <dbl> <int>
 1 Adelie  Torgersen           39.1  2007
 2 Adelie  Torgersen           39.5  2007
 3 Adelie  Torgersen           40.3  2007
 4 Adelie  Torgersen           NA    2007
 5 Adelie  Torgersen           36.7  2007
 6 Adelie  Torgersen           39.3  2007
 7 Adelie  Torgersen           38.9  2007
 8 Adelie  Torgersen           39.2  2007
 9 Adelie  Torgersen           34.1  2007
10 Adelie  Torgersen           42    2007
# … with 334 more rows

Selecting columns with select()

We can select also pair select with helper functions such as starts_with(), ends_with(), contains(), matches()

select(penguins, ends_with("_mm"))

# A tibble: 344 × 3
   bill_length_mm bill_depth_mm flipper_length_mm
            <dbl>         <dbl>             <int>
 1           39.1          18.7               181
 2           39.5          17.4               186
 3           40.3          18                 195
 4           NA            NA                  NA
 5           36.7          19.3               193
 6           39.3          20.6               190
 7           38.9          17.8               181
 8           39.2          19.6               195
 9           34.1          18.1               193
10           42            20.2               190
# … with 334 more rows

Selecting columns with select()

We can also “negatively select,” in the sense that we can get rid of columns while keeping the rest by prefacing our selection arguments with a - sign:

select(penguins, -ends_with("_mm"))

# A tibble: 344 × 6
   species island    body_mass_g sex     year bill_length_cm
   <fct>   <fct>           <int> <fct>  <int>          <dbl>
 1 Adelie  Torgersen        3750 male    2007           3.91
 2 Adelie  Torgersen        3800 female  2007           3.95
 3 Adelie  Torgersen        3250 female  2007           4.03
 4 Adelie  Torgersen          NA <NA>    2007          NA   
 5 Adelie  Torgersen        3450 female  2007           3.67
 6 Adelie  Torgersen        3650 male    2007           3.93
 7 Adelie  Torgersen        3625 female  2007           3.89
 8 Adelie  Torgersen        4675 male    2007           3.92
 9 Adelie  Torgersen        3475 <NA>    2007           3.41
10 Adelie  Torgersen        4250 <NA>    2007           4.2 
# … with 334 more rows
…
Artwork by Allison Horst

Filtering a dataset with filter()

We can filter for multiple values in one call

filter(penguins, species == "Adelie" & year != 2007)

# A tibble: 102 × 9
   species island bill_length_mm bill_dept…¹ flipp…² body_…³ sex    year bill_…⁴
   <fct>   <fct>           <dbl>       <dbl>   <int>   <int> <fct> <int>   <dbl>
 1 Adelie  Biscoe           39.6        17.7     186    3500 fema…  2008    3.96
 2 Adelie  Biscoe           40.1        18.9     188    4300 male   2008    4.01
 3 Adelie  Biscoe           35          17.9     190    3450 fema…  2008    3.5 
 4 Adelie  Biscoe           42          19.5     200    4050 male   2008    4.2 
 5 Adelie  Biscoe           34.5        18.1     187    2900 fema…  2008    3.45
 6 Adelie  Biscoe           41.4        18.6     191    3700 male   2008    4.14
 7 Adelie  Biscoe           39          17.5     186    3550 fema…  2008    3.9 
 8 Adelie  Biscoe           40.6        18.8     193    3800 male   2008    4.06
 9 Adelie  Biscoe           36.5        16.6     181    2850 fema…  2008    3.65
10 Adelie  Biscoe           37.6        19.1     194    3750 male   2008    3.76
# … with 92 more rows, and abbreviated variable names ¹​bill_depth_mm,
#   ²​flipper_length_mm, ³​body_mass_g, ⁴​bill_length_cm
…
# A tibble: 2 × 9
  species island    bill_length_mm bill_de…¹ flipp…² body_…³ sex    year bill_…⁴
  <fct>   <fct>              <dbl>     <dbl>   <int>   <int> <fct> <int>   <dbl>
1 Adelie  Torgersen             NA        NA      NA      NA <NA>   2007      NA
2 Gentoo  Biscoe                NA        NA      NA      NA <NA>   2009      NA
# … with abbreviated variable names ¹​bill_depth_mm, ²​flipper_length_mm,
#   ³​body_mass_g, ⁴​bill_length_cm

Filtering a dataset with filter()

To filter for multiple values of a variable, use | or %in%

filter(penguins, species == "Adelie" | species == "Gentoo")

# A tibble: 276 × 9
   species island    bill_length_mm bill_d…¹ flipp…² body_…³ sex    year bill_…⁴
   <fct>   <fct>              <dbl>    <dbl>   <int>   <int> <fct> <int>   <dbl>
 1 Adelie  Torgersen           39.1     18.7     181    3750 male   2007    3.91
 2 Adelie  Torgersen           39.5     17.4     186    3800 fema…  2007    3.95
 3 Adelie  Torgersen           40.3     18       195    3250 fema…  2007    4.03
 4 Adelie  Torgersen           NA       NA        NA      NA <NA>   2007   NA   
 5 Adelie  Torgersen           36.7     19.3     193    3450 fema…  2007    3.67
 6 Adelie  Torgersen           39.3     20.6     190    3650 male   2007    3.93
 7 Adelie  Torgersen           38.9     17.8     181    3625 fema…  2007    3.89
 8 Adelie  Torgersen           39.2     19.6     195    4675 male   2007    3.92
 9 Adelie  Torgersen           34.1     18.1     193    3475 <NA>   2007    3.41
10 Adelie  Torgersen           42       20.2     190    4250 <NA>   2007    4.2 
# … with 266 more rows, and abbreviated variable names ¹​bill_depth_mm,
#   ²​flipper_length_mm, ³​body_mass_g, ⁴​bill_length_cm

Filtering a dataset with filter()

To filter for multiple values of a variable, use | or %in%

filter(penguins, species %in% c("Adelie", "Gentoo"))

# A tibble: 276 × 9
   species island    bill_length_mm bill_d…¹ flipp…² body_…³ sex    year bill_…⁴
   <fct>   <fct>              <dbl>    <dbl>   <int>   <int> <fct> <int>   <dbl>
 1 Adelie  Torgersen           39.1     18.7     181    3750 male   2007    3.91
 2 Adelie  Torgersen           39.5     17.4     186    3800 fema…  2007    3.95
 3 Adelie  Torgersen           40.3     18       195    3250 fema…  2007    4.03
 4 Adelie  Torgersen           NA       NA        NA      NA <NA>   2007   NA   
 5 Adelie  Torgersen           36.7     19.3     193    3450 fema…  2007    3.67
 6 Adelie  Torgersen           39.3     20.6     190    3650 male   2007    3.93
 7 Adelie  Torgersen           38.9     17.8     181    3625 fema…  2007    3.89
 8 Adelie  Torgersen           39.2     19.6     195    4675 male   2007    3.92
 9 Adelie  Torgersen           34.1     18.1     193    3475 <NA>   2007    3.41
10 Adelie  Torgersen           42       20.2     190    4250 <NA>   2007    4.2 
# … with 266 more rows, and abbreviated variable names ¹​bill_depth_mm,
#   ²​flipper_length_mm, ³​body_mass_g, ⁴​bill_length_cm

Filtering a dataset with filter()

To filter for multiple values of a variable, use | or %in%

targetspecies <- c("Adelie", "Gentoo")
filter(penguins, species %in% targetspecies)

# A tibble: 276 × 9
   species island    bill_length_mm bill_d…¹ flipp…² body_…³ sex    year bill_…⁴
   <fct>   <fct>              <dbl>    <dbl>   <int>   <int> <fct> <int>   <dbl>
 1 Adelie  Torgersen           39.1     18.7     181    3750 male   2007    3.91
 2 Adelie  Torgersen           39.5     17.4     186    3800 fema…  2007    3.95
 3 Adelie  Torgersen           40.3     18       195    3250 fema…  2007    4.03
 4 Adelie  Torgersen           NA       NA        NA      NA <NA>   2007   NA   
 5 Adelie  Torgersen           36.7     19.3     193    3450 fema…  2007    3.67
 6 Adelie  Torgersen           39.3     20.6     190    3650 male   2007    3.93
 7 Adelie  Torgersen           38.9     17.8     181    3625 fema…  2007    3.89
 8 Adelie  Torgersen           39.2     19.6     195    4675 male   2007    3.92
 9 Adelie  Torgersen           34.1     18.1     193    3475 <NA>   2007    3.41
10 Adelie  Torgersen           42       20.2     190    4250 <NA>   2007    4.2 
# … with 266 more rows, and abbreviated variable names ¹​bill_depth_mm,
#   ²​flipper_length_mm, ³​body_mass_g, ⁴​bill_length_cm

Renaming columns with rename()

Renaming columns is a breeze, using the sytax new = old. This is so much better than having to use colnames() and indexing!

rename(penguins, bill.l = bill_length_mm, flip.l = flipper_length_mm)

# A tibble: 344 × 9
   species island    bill.l bill_depth_mm flip.l body_mass_g sex    year bill_…¹
   <fct>   <fct>      <dbl>         <dbl>  <int>       <int> <fct> <int>   <dbl>
 1 Adelie  Torgersen   39.1          18.7    181        3750 male   2007    3.91
 2 Adelie  Torgersen   39.5          17.4    186        3800 fema…  2007    3.95
 3 Adelie  Torgersen   40.3          18      195        3250 fema…  2007    4.03
 4 Adelie  Torgersen   NA            NA       NA          NA <NA>   2007   NA   
 5 Adelie  Torgersen   36.7          19.3    193        3450 fema…  2007    3.67
 6 Adelie  Torgersen   39.3          20.6    190        3650 male   2007    3.93
 7 Adelie  Torgersen   38.9          17.8    181        3625 fema…  2007    3.89
 8 Adelie  Torgersen   39.2          19.6    195        4675 male   2007    3.92
 9 Adelie  Torgersen   34.1          18.1    193        3475 <NA>   2007    3.41
10 Adelie  Torgersen   42            20.2    190        4250 <NA>   2007    4.2 
# … with 334 more rows, and abbreviated variable name ¹​bill_length_cm
…
mutate() allows us to add new columns to our dataset. It’s especially useful for defining new columns as a computation of other columns.

Artwork by Allison Horst

Adding new columns with mutate()

mutate(penguins, bill_length_mm = bill_length_cm/10)

# A tibble: 344 × 9
   species island    bill_length_mm bill_d…¹ flipp…² body_…³ sex    year bill_…⁴
   <fct>   <fct>              <dbl>    <dbl>   <int>   <int> <fct> <int>   <dbl>
 1 Adelie  Torgersen          0.391     18.7     181    3750 male   2007    3.91
 2 Adelie  Torgersen          0.395     17.4     186    3800 fema…  2007    3.95
 3 Adelie  Torgersen          0.403     18       195    3250 fema…  2007    4.03
 4 Adelie  Torgersen         NA         NA        NA      NA <NA>   2007   NA   
 5 Adelie  Torgersen          0.367     19.3     193    3450 fema…  2007    3.67
 6 Adelie  Torgersen          0.393     20.6     190    3650 male   2007    3.93
 7 Adelie  Torgersen          0.389     17.8     181    3625 fema…  2007    3.89
 8 Adelie  Torgersen          0.392     19.6     195    4675 male   2007    3.92
 9 Adelie  Torgersen          0.341     18.1     193    3475 <NA>   2007    3.41
10 Adelie  Torgersen          0.42      20.2     190    4250 <NA>   2007    4.2 
# … with 334 more rows, and abbreviated variable names ¹​bill_depth_mm,
#   ²​flipper_length_mm, ³​body_mass_g, ⁴​bill_length_cm

Adding new columns with mutate()

Let’s add a column called cute, which is coded “yes” if bill length < 35mm, and “no” if bill length >= 35mm

mutate(penguins, cute = ifelse(bill_length_mm < 35, "Yes", "No"))

# A tibble: 344 × 10
   species island    bill_le…¹ bill_…² flipp…³ body_…⁴ sex    year bill_…⁵ cute 
   <fct>   <fct>         <dbl>   <dbl>   <int>   <int> <fct> <int>   <dbl> <chr>
 1 Adelie  Torgersen      39.1    18.7     181    3750 male   2007    3.91 No   
 2 Adelie  Torgersen      39.5    17.4     186    3800 fema…  2007    3.95 No   
 3 Adelie  Torgersen      40.3    18       195    3250 fema…  2007    4.03 No   
 4 Adelie  Torgersen      NA      NA        NA      NA <NA>   2007   NA    <NA> 
 5 Adelie  Torgersen      36.7    19.3     193    3450 fema…  2007    3.67 No   
 6 Adelie  Torgersen      39.3    20.6     190    3650 male   2007    3.93 No   
 7 Adelie  Torgersen      38.9    17.8     181    3625 fema…  2007    3.89 No   
 8 Adelie  Torgersen      39.2    19.6     195    4675 male   2007    3.92 No   
 9 Adelie  Torgersen      34.1    18.1     193    3475 <NA>   2007    3.41 Yes  
10 Adelie  Torgersen      42      20.2     190    4250 <NA>   2007    4.2  No   
# … with 334 more rows, and abbreviated variable names ¹​bill_length_mm,
#   ²​bill_depth_mm, ³​flipper_length_mm, ⁴​body_mass_g, ⁵​bill_length_cm

Adding new columns with mutate()

Let’s add a column that calculates the z-score for bill length - this can be done in one line, but let’s do it in two to illustrate that we can call on new variables within a mutate call:

mutate(penguins, 
       bill_length_z = bill_length_mm - mean(bill_length_mm, na.rm = TRUE), 
       bill_length_z = bill_length_z/ sd(bill_length_mm, na.rm = TRUE))   %>% select(species, island, bill_length_mm, bill_length_z)

# A tibble: 344 × 4
   species island    bill_length_mm bill_length_z
   <fct>   <fct>              <dbl>         <dbl>
 1 Adelie  Torgersen           39.1        -0.883
 2 Adelie  Torgersen           39.5        -0.810
 3 Adelie  Torgersen           40.3        -0.663
 4 Adelie  Torgersen           NA          NA    
 5 Adelie  Torgersen           36.7        -1.32 
 6 Adelie  Torgersen           39.3        -0.847
 7 Adelie  Torgersen           38.9        -0.920
 8 Adelie  Torgersen           39.2        -0.865
 9 Adelie  Torgersen           34.1        -1.80 
10 Adelie  Torgersen           42          -0.352
# … with 334 more rows
…
Artwork by Allison Horst

A few %>% example

When we want to use a pipe, we move the name of the dataframe out of the function:

penguins %>% 
  mutate(bill_length_cm = bill_length_mm/10)%>%
  filter(species == "Gentoo")%>% 
  select(island, sex, bill_length_cm)

# A tibble: 124 × 3
   island sex    bill_length_cm
   <fct>  <fct>           <dbl>
 1 Biscoe female           4.61
 2 Biscoe male             5   
 3 Biscoe female           4.87
 4 Biscoe male             5   
 5 Biscoe male             4.76
 6 Biscoe female           4.65
 7 Biscoe female           4.54
 8 Biscoe male             4.67
 9 Biscoe female           4.33
10 Biscoe male             4.68
# … with 114 more rows
…
Summarizing across groups

You can achieve this with group_by()and summarize() like so:

child %>% 
  filter(!is.na(age))%>%
  group_by(id)%>%
  summarize(n_kids = n())

# A tibble: 1,532 × 2
   id                        n_kids
   <chr>                      <int>
 1 `5ebb0261d63dde0ba3b037c5      2
 2 544fe86dfdf99b56bcf1f8ce       1
 3 54847013fdf99b0379939c8a       2
 4 5532496efdf99b1fccde4347       1
 5 559ae660fdf99b361ac4662c       2
 6 55b249bdfdf99b28e3c14b05       3
 7 55cc0397fe3304000562553b       2
 8 55ce148b34e9060012e56279       2
 9 55d0d4b334e9060005e57470       2
10 55d35a63da14d7001295328e       3
# … with 1,522 more rows
…
